…
``` r
# Get which genes had the highest prediction values
top_predicted_genes <- lapply(1:n, get_top_predicted_genes, predictions_list)
top_predicted_genes <- reduce(top_predicted_genes, full_join, by = c("gene","true_target"))
top_predicted_genes
```

    ## # A tibble: 234 × 12
    ##    gene      true_target predicted_top_target_round1 predicted_top_target_round2 predicted_top_target_round3 predicted_top_target_round4 predicted_top_target_round5 predicted_top_target_round6 predicted_top_target_…¹ predicted_top_target…² predicted_top_target…³ predicted_top_target…⁴
    ##    <chr>     <lgl>       <lgl>                       <lgl>                       <lgl>                       <lgl>                       <lgl>                       <lgl>                       <lgl>                   <lgl>                  <lgl>                  <lgl>                 
    ##  1 Trim12a   FALSE       TRUE                        TRUE                        TRUE                        TRUE                        TRUE                        TRUE                        TRUE                    TRUE                   TRUE                   TRUE                  
    ##  2 Trim30c   TRUE        TRUE                        TRUE                        TRUE                        TRUE                        TRUE                        TRUE                        TRUE                    TRUE                   TRUE                   TRUE                  
    ##  3 Gbp8      TRUE        TRUE                        TRUE                        TRUE                        TRUE                        TRUE                        TRUE                        TRUE                    TRUE                   TRUE                   TRUE                  
    ##  4 Gbp6      TRUE        TRUE                        TRUE                        TRUE                        TRUE                        TRUE                        TRUE                        TRUE                    TRUE                   TRUE                   TRUE                  
    ##  5 Rpl34-ps1 FALSE       TRUE                        TRUE                        TRUE                        TRUE                        TRUE                        TRUE                        TRUE                    TRUE                   TRUE                   TRUE                  
    ##  6 Gimap9    FALSE       TRUE                        TRUE                        TRUE                        TRUE                        TRUE                        TRUE                        TRUE                    TRUE                   TRUE                   TRUE                  
    ##  7 Ms4a4c    TRUE        TRUE                        TRUE                        TRUE                        TRUE                        TRUE                        TRUE                        TRUE                    TRUE                   TRUE                   TRUE                  
    ##  8 Ly6c2     TRUE        TRUE                        TRUE                        TRUE                        TRUE                        TRUE                        TRUE                        TRUE                    TRUE                   TRUE                   TRUE                  
    ##  9 H2-Q4     FALSE       TRUE                        TRUE                        TRUE                        TRUE                        TRUE                        TRUE                        TRUE                    TRUE                   TRUE                   TRUE                  
    ## 10 H2-D1     TRUE        TRUE                        TRUE                        TRUE                        TRUE                        TRUE                        TRUE                        TRUE                    TRUE                   TRUE                   TRUE                  
    ## # ℹ 224 more rows
    ## # ℹ abbreviated names: ¹​predicted_top_target_round7, ²​predicted_top_target_round8, ³​predicted_top_target_round9, ⁴​predicted_top_target_round10
…
